{
    "version":                                             0,
    "execution": {
        "numCPUs":                                         -1,
        "numRuns":                                         2
    },
    "settings": {
        "combination": {
            "exec_numMotes":                               [10,30,50],
            "sf_class":                                    ["SFNone", "MSF"]
        },
        "regular": {
            "exec_numSlotframesPerRun":                    10000,
            "exec_randomSeed":                             "random",

            "secjoin_enabled":                             true,

            "app":                                         "AppPeriodic",
            "app_pkPeriod":                                10,
            "app_pkPeriodVar":                             0.05,
            "app_pkLength":                                90,
            "app_burstTimestamp":                          null,
            "app_burstNumPackets":                         0,

            "rpl_daoPeriod":                               60,
            "rpl_extensions":                              ["dis_unicast"],

            "fragmentation":                               "FragmentForwarding",
            "sixlowpan_reassembly_buffers_num":            1,
            "fragmentation_ff_discard_vrb_entry_policy":   [],
            "fragmentation_ff_vrb_table_size":             50,
            "tsch_max_payload_len":                        90,


            "tsch_slotDuration":                           0.010,
            "tsch_slotframeLength":                        101,
            "tsch_probBcast_ebProb":                       0.16,
            "tsch_clock_max_drift_ppm":                    30,
            "tsch_clock_frequency":                        32768,
            "tsch_keep_alive_interval":                    10,

            "charge_log_period_s":                         10,

            "conn_class":                                  "Linear",
            "conn_trace":                                  null,

            "conn_random_square_side":                     2.000,
            "conn_random_init_min_pdr":                    0.5,
            "conn_random_init_min_neighbors":              3,

            "phy_numChans":                                16
        }
    },
    "logging":                                             ["tsch.synced", "secjoin.joined", "app.tx", "app.rx",
                                                            "packet_dropped", "batt.charge", "simulator.random_seed",
                                                            "sixlowpan.pkt.fwd", "sixlowpan.pkt.tx", "sixlowpan.pkt.rx",
                                                            "prop.transmission", "rpl.dio.tx", "rpl.dio.rx", "tsch.add_cell"],
    "log_directory_name":                                  "startTime",
    "post": [
        "python compute_kpis.py",
        "python plot.py"
    ]
}
